{
  "type": "service_account",
  "project_id": "trend-solar-90027",
  "private_key_id": "d83ec550d9434d377a5e6241c38419abe3d823d1",
  "private_key": "-----BEGIN PRIVATE KEY-----\nMIIEvQIBADANBgkqhkiG9w0BAQEFAASCBKcwggSjAgEAAoIBAQC5tDOI8V2hJABz\nnmXXj+dLzP8zb/fOcHtnWbeG/K+8Qgtz+v3/BoMLL4bGXa0u3CIpenwcMX7cVWm8\nx0DzEAyLjznTCRgU3lxyiP5lMo36IvTmEdsRr4YNWfCMNUV7sCBia8Qfyw/E/2QV\nm4kU4PySH4VM3VwN+Q4eNld9ZVHgVyjYDnA+gCbYC7wXPeT5WhyixtPsfyi7ffmS\nAtN0y79cSSJ63bYAKOiRnOY6iuKff4S/UQm9dVRNQYjI+ZLhF4ShCSgGw5As50xp\nj53QdJbCoh/2zjk7Vq0+Uob/gXN44nXK18VkVpFUTLYZIovN92fWxLxSOJ21aw8Y\n1oI7z/Z/AgMBAAECggEAF5g97K+KJMAPxKDtXKhT4Xgq5qyvxiLZiGXy9muNoomb\nrevyhgrG7067EjdzGnSYF0AQ8SjCxG5KcH9lO7IgKJfqkhXiNuiSbhpaLvPE6/Fc\nFLf+ZxlaRWurhLenW+dNaLk7jTSTjNqhgJ38mqgEFJwnp36qmbs5YCepvGzOrIZU\nR8ge5Y3oTVYGfVZLOWibL6TkggwCmzPIobWT3uad8yQkLjOWQQLDkyVvSpVp8m28\nuEevQPkkifUvlpwj07Seq/fM6DO2Sq1yRYYvbzKqLiW4+0huhnudLYQE7uejv8OB\nswNsj07NPlP5g2gt/jbE8siAX91ZbUVZYPQztIDjjQKBgQDptb6kkfFzetoO+z98\nAKziuMMd9IGEUclPhYOUXin4nYcKlZJVTzTOT9RLrHOEg6q1TZfibZyIJqdLA67W\nq+mFBttefqM4/UiKzzonXBvb5VrBuR92r6z2beEzB3HWrohuJHo5KxB0MX9pcthI\n5deqb0vhHAqhO0PDRS374UYskwKBgQDLale/aC230c5flmcI+OMHyJKnyD/8+DPL\ntBTIXwYuN2EfP5IwBT9yxDri2qSB1Tt5rFGwU+3CZZB72VsJXAAu9e4UTRBAXKxa\nDtwnQvauTlz+GBcuwbohr8LKdrgEpDYGUndoA/vDVssm91nUxQrLCEufNriU1ePi\nqv3lXeLt5QKBgQDTV/BDoFrJhEInJBu/xliRWmXP8+kfwFoc2G8pv5GS6tlQv/up\nu8vT+irQF+4K2oqIE9gTAe54zQOh+X2lUacGDjJYnIp8Icf1Bvre1xO2Yg0VfJQw\nXyM5YhoxbD0M1542hDQm+IOTn6NJt3pRSdAipyzmL9aJATABKNExowEzkwKBgGjz\nHATIZlYh7H1K5yws5U29wVTJr6IAGREvf02GIXU042ow7WbTPlIjRlKHBjtqXb5A\nFwGHu/MBXdNYaGzix8Fy53wX6puadN4eLp4fIZD7I2WB3mwkTblVqoW1TOowIyON\n5seGzp2RKU2YbwOlChWI2SNzIza/SE1JdaeikhO1AoGAAy6IuiKwzhRadQYZR+IN\n/do//kgchniWQwnLeAGtp3CdmQDy0NPU9U2DJlDaC3EbS54qMigySaqzVJtMdclD\nJrdBdvFQLJcvCFkRQZ2CG4hbqsjtHVX9iLaEy5Jt1MJEyMqDYcczDOY8V2/yv+Yd\nDCc+9Z/69zJRQpG7J3wwwow=\n-----END PRIVATE KEY-----\n",
  "client_email": "firebase-adminsdk-yn9ig@trend-solar-90027.iam.gserviceaccount.com",
  "client_id": "114603051366152939667",
  "auth_uri": "https://accounts.google.com/o/oauth2/auth",
  "token_uri": "https://oauth2.googleapis.com/token",
  "auth_provider_x509_cert_url": "https://www.googleapis.com/oauth2/v1/certs",
  "client_x509_cert_url": "https://www.googleapis.com/robot/v1/metadata/x509/firebase-adminsdk-yn9ig%40trend-solar-90027.iam.gserviceaccount.com"
}
